-------------------------------------------------------------------------------
Test set: com.epam.newsmanagement.service.AuthorServiceTest
-------------------------------------------------------------------------------
Tests run: 4, Failures: 0, Errors: 0, Skipped: 0, Time elapsed: 0.296 sec
